{

  "TestSiteSettings": {
    "Exists": true,
    "Enabled": true,
    "All": true,
    "TraceLevel": "Verbose",
    "IPv4Prefixes": "192.168|10.1",
    "TimeZones": "Pacific Standard Time|Central Standard Time",
    "TimeZoneOffsets": "-8|-6"
  },

  "Serilog": {
    "LevelSwitches": {
      "$consoleSwitch": "Verbose",
      "$debugSwitch": "Verbose",
      "$traceSwitch": "Verbose",
      "$fileSwitch": "Verbose"
    },
    "MinimumLevel": {
      "Default": "Debug",
      "Override": {
        "Default": "Information",
        "Microsoft": "Warning",
        "Microsoft.Hosting.Lifetime": "Information",
        "cc.isr": "Verbose"
      }
    },
    "Using": [ "Serilog.Sinks.Trace", "Serilog.Sinks.Console", "Serilog.Sinks.Debug", "Serilog.Sinks.File" ],
    "WriteTo": [
      {
        "Name": "Trace",
        "Args": {
          "levelSwitch": "$traceSwitch",
          "outputTemplate": "t::{Timestamp:HH:mm:ss.fff zzz}, [{Level:u3}], ({SourceContext}), {Message}{NewLine}{Exception}"
        }
      },
      {
        "Name": "Console",
        "Args": {
          "levelSwitch": "$consoleSwitch",
          "outputTemplate": "c::{Timestamp:HH:mm:ss.fff zzz}, [{Level:u3}], ({SourceContext}), {Message}{NewLine}{Exception}"
        }
      },
      {
        "Name": "Debug",
        "Args": {
          "levelSwitch": "$debugSwitch",
          "outputTemplate": "d::{Timestamp:HH:mm:ss.fff zzz}, [{Level:u3}], ({SourceContext}), {Message}{NewLine}{Exception}"
        }
      },
      {
        "Name": "Async",
        "Args": {
          "configure": [
            {
              "Name": "File",
              "Args": {
                "levelSwitch": "$fileSwitch",
                "hooks": "cc.isr.Logging.Orlog.SerilogHooks::MyHeaderWriter, cc.isr.Logging.Orlog",
                "path": "../_logs/%ComputerName%_.log",
                "outputTemplate": "{Timestamp:HH:mm:ss.fff zzz}, [{Level:u3}], ({SourceContext}), {Message}{NewLine}{Exception}",
                "rollingInterval": "Day",
                "retainedFileCountLimit": 7
              }
            }
          ]
        }
      }
    ],

    "Enrich": [ "FromLogContext", "WithMachineName", "WithThreadId" ],

    "Destructure": [
      {
        "Name": "ToMaximumDepth",
        "Args": { "maximumDestructuringDepth": 4 }
      },
      {
        "Name": "ToMaximumStringLength",
        "Args": { "maximumStringLength": 100 }
      },
      {
        "Name": "ToMaximumCollectionCount",
        "Args": { "maximumCollectionCount": 10 }
      }
    ],
    "Properties": {
      "Application": "cc.isr.Json.AppSettings.ViewModels.MSTest"
    }
  }

}
